"#","Date Submitted","Name","Email","First Name","Surname","User Type","Username","Email","Main Location","Access To Which Folders","Access To Which Systems","Access To Which Printers","Is Remote Access Required"
"43","30/11/2015","Sue Williams","suew@severnhospice.org.uk","Jo ","Moxam","","","jom@severnhospice.org.uk","Shrewsbury","emails  -  Jo is already set up as a new user, but it appears that she is not getting access to all emails - please could you check?  She should receive emails that are sent to All Users for example.
SystmOne
Word
Excel","","","No"
