id,user_id,post_id,name,max_year,hours_enabled,hours_interval_enabled,price_min,price_max,rating,address,address_en,address_alt,address_alt_en,coordinates
1,1,0,"Lecture Room",2017,true,true,1000000000,0,0,,,,,
2,1,0,"Meeting Room (F6)",2017,true,false,1000000000,0,0,,,,,
3,1,0,"New calendar",2016,true,true,1000000000,0,0,,,,,
4,13,0,"New calendar",0,false,false,0,0,0,,,,,
