"#","Date Submitted","Name","Email","First Name","Surname","User Type","Username","Email","Main Location","Access To Which Folders","Access To Which Systems","Access To Which Printers","Is Remote Access Required"
"37","26/10/2015","Sue Williams","suew@severnhospice.org.uk","Becky","Lee","User","beckyl","beckyl@severnhospice.org.uk","Shrewsbury","","iCare
Becky is bank staff and will work at both Shrewsbury and Telford sites (using the complementary therapy computers)","","No"
