"#","Date Submitted","Name","Email","First Name","Surname","User Type","Username","Email","Access To Which Folders","Access To Which Systems","Access To Which Printers","Is Remote Access Required"
"7","13/05/2015","Paula Carless","paulac@severnhospice.or.guk","Lisca","Clayton","User","","","PLEASE NOTE NOT SURE IF LISCA IS ALREADY SET UP AS A USER BUT IS BROOKLANDS SHOP MANAGER - IF NOT SHE NEEDS TO BE

SHE NEEDS A PERSONAL EMAIL ADDRESS

PLEASE PHONE JAN OR PAULA ON 01743 272082 IF ANY QUERIES","email
personal email account
severn hospice intranet","","Yes"
